<?xml version="1.0" encoding="UTF-8" ?>
<!DOCTYPE svg PUBLIC "-//W3C//DTD SVG 1.1//EN" "http://www.w3.org/Graphics/SVG/1.1/DTD/svg11.dtd">
<svg width="736pt" height="736pt" viewBox="0 0 736 736" version="1.1" xmlns="http://www.w3.org/2000/svg">
<g id="#ffffffff">
</g>
<g id="#fe6601ff">
<path fill="#fe6601" opacity="1.00" d=" M 397.43 53.70 C 409.09 50.06 421.21 48.04 433.34 46.76 C 440.54 46.20 447.78 46.48 455.00 46.41 C 476.50 45.97 497.85 51.43 517.19 60.63 C 522.17 63.00 527.33 65.04 532.02 67.99 C 538.93 72.36 546.14 76.30 552.45 81.55 C 565.80 91.74 577.15 104.17 588.94 116.06 C 593.06 120.34 596.30 125.35 600.00 129.99 C 605.74 137.08 610.12 145.13 615.38 152.58 C 619.22 159.22 623.93 165.44 626.61 172.69 C 621.17 169.38 617.82 163.87 613.79 159.14 C 607.72 151.93 600.66 145.65 593.99 139.00 C 587.56 132.60 579.98 127.56 572.72 122.19 C 560.70 113.17 546.89 106.72 532.65 102.09 C 520.00 98.23 506.42 96.62 493.35 99.16 C 483.65 101.07 474.17 104.42 465.67 109.48 C 460.67 112.37 456.25 116.14 451.37 119.21 C 442.12 124.47 432.78 129.78 424.49 136.49 C 417.33 143.66 409.13 149.84 402.98 157.97 C 398.62 163.66 394.43 169.69 392.46 176.66 C 401.56 172.53 408.94 165.52 417.81 160.94 C 423.08 158.10 428.63 155.80 433.94 153.02 C 444.47 147.58 455.95 144.31 467.46 141.70 C 479.12 139.08 491.15 139.07 503.03 139.61 C 532.24 141.91 561.52 153.57 581.63 175.37 C 592.53 185.91 600.38 199.17 606.10 213.11 C 611.40 225.15 616.67 237.66 617.38 250.96 C 617.07 261.00 618.78 270.95 618.42 281.00 C 618.59 294.62 618.24 308.30 616.41 321.81 C 614.94 328.21 614.78 335.68 609.62 340.44 C 606.20 327.40 603.45 314.18 599.39 301.31 C 594.11 286.39 587.99 271.68 579.89 258.05 C 572.98 245.53 563.54 234.59 553.14 224.84 C 547.89 220.08 542.11 215.36 534.99 213.86 C 527.41 212.10 519.78 210.35 512.02 209.63 C 499.52 209.03 486.58 208.79 474.73 213.46 C 464.90 216.81 456.48 223.69 450.91 232.42 C 458.80 235.16 467.32 235.12 475.24 237.76 C 495.76 243.61 514.45 255.44 528.40 271.60 C 542.83 288.90 551.61 310.39 556.18 332.30 C 557.37 351.59 554.80 370.99 550.50 389.78 C 548.53 396.31 547.84 403.71 542.88 408.85 C 542.17 399.90 542.61 390.87 540.79 382.02 C 538.99 366.25 533.53 350.79 524.21 337.88 C 515.86 326.43 502.76 318.21 488.49 317.10 C 472.41 315.62 456.25 313.40 440.09 314.74 C 433.60 315.69 426.33 315.98 421.24 320.67 C 434.50 323.93 448.03 327.66 459.29 335.72 C 467.01 341.95 474.71 348.50 480.11 356.94 C 486.41 366.82 490.78 378.00 492.93 389.51 C 494.51 396.95 492.53 404.46 492.54 411.94 C 492.42 423.36 489.78 434.54 486.91 445.53 C 484.62 454.29 481.45 462.88 476.87 470.72 C 473.41 476.48 471.10 483.04 466.29 487.91 C 467.84 478.57 471.35 469.59 471.69 460.05 C 473.64 440.70 471.53 420.29 461.77 403.14 C 457.90 395.71 452.28 389.47 447.06 383.00 C 441.17 374.39 433.54 366.36 423.64 362.51 C 417.41 359.98 410.55 360.09 403.96 360.46 C 393.40 361.32 383.85 366.61 375.04 372.12 C 366.86 378.11 359.53 385.17 351.72 391.62 C 343.57 398.10 338.81 407.57 333.02 416.01 C 326.69 425.21 322.71 435.88 315.59 444.56 C 305.57 457.16 292.80 468.13 277.57 473.83 C 261.18 480.21 242.14 475.09 229.12 463.87 C 214.50 451.09 202.85 435.02 194.75 417.40 C 191.54 408.95 188.32 400.21 188.30 391.05 C 188.22 382.67 187.74 374.08 190.38 366.01 C 192.71 358.91 194.45 351.56 194.50 344.05 C 194.58 335.06 194.94 326.00 193.52 317.09 C 191.08 301.75 186.08 286.65 177.72 273.49 C 174.31 268.03 171.49 261.81 166.02 258.05 C 158.82 253.10 150.38 250.34 142.05 247.95 C 132.21 245.07 121.46 247.50 112.87 252.77 C 109.95 254.54 107.13 257.34 107.31 261.03 C 106.75 265.88 109.77 269.95 112.46 273.63 C 117.70 280.77 120.86 289.13 123.86 297.40 C 126.98 306.26 128.92 315.58 129.42 324.97 C 129.96 339.15 124.39 352.63 117.90 364.95 C 111.07 376.07 101.79 385.43 92.41 394.41 C 89.84 396.88 87.37 399.49 85.30 402.42 C 74.79 417.61 64.69 433.58 59.98 451.65 C 57.16 462.90 54.36 474.31 54.34 485.98 C 54.25 493.88 54.19 501.80 54.70 509.68 C 56.70 530.39 64.00 550.21 73.44 568.61 C 77.17 575.40 80.61 582.42 85.62 588.39 C 94.91 599.43 103.41 611.14 113.38 621.60 C 119.97 629.32 127.41 636.25 134.37 643.62 C 140.66 650.01 146.94 656.48 154.06 661.97 C 160.23 666.75 165.38 672.66 171.47 677.53 C 175.14 680.45 178.87 683.39 181.61 687.26 C 172.39 685.23 164.29 680.24 155.79 676.41 C 143.24 671.16 131.93 663.52 120.23 656.69 C 102.97 645.40 86.21 633.02 72.09 617.91 C 67.54 613.11 63.18 608.15 58.55 603.43 C 47.02 590.56 39.29 574.86 32.70 559.03 C 24.47 538.77 21.83 516.47 24.45 494.80 C 26.89 477.71 31.51 460.93 38.30 445.05 C 44.62 433.13 50.79 421.11 57.74 409.54 C 60.72 405.00 64.04 400.69 66.73 395.96 C 57.79 388.75 48.17 382.06 41.48 372.54 C 36.11 365.07 33.06 355.18 36.17 346.19 C 37.88 338.89 44.44 334.46 48.01 328.20 C 52.37 320.83 57.75 313.69 65.23 309.25 C 69.94 306.37 76.07 306.93 80.46 303.41 C 86.69 298.33 91.19 290.91 92.21 282.88 C 92.82 277.52 89.36 272.78 85.59 269.37 C 78.98 263.19 70.25 260.04 61.73 257.50 C 57.26 256.05 52.52 256.38 47.91 256.83 C 51.63 248.88 58.42 242.31 66.83 239.56 C 77.21 235.87 88.51 237.24 99.00 239.70 C 92.32 231.98 85.35 224.28 81.08 214.88 C 76.95 206.28 75.84 195.83 79.74 186.94 C 82.22 181.06 87.69 177.31 92.78 173.85 C 96.42 171.29 101.19 170.49 105.48 171.63 C 107.67 172.94 108.39 175.70 108.37 178.10 C 108.40 183.50 106.19 189.10 108.34 194.35 C 109.38 197.37 111.94 199.41 114.30 201.39 C 115.86 198.14 116.55 194.58 116.57 190.99 C 116.52 184.53 120.58 179.11 124.14 174.09 C 128.15 169.35 133.24 164.09 139.94 164.25 C 145.47 164.34 151.17 164.46 156.44 166.36 C 160.92 167.87 163.13 173.25 162.01 177.65 C 160.97 183.25 157.27 188.59 158.71 194.47 C 160.61 199.75 166.56 202.58 171.94 202.37 C 179.24 202.08 186.71 201.18 193.42 198.13 C 196.69 196.74 200.14 194.79 203.82 195.77 C 207.75 196.73 212.68 197.97 214.33 202.13 C 215.20 205.71 212.41 208.71 210.19 211.15 C 205.53 216.26 199.32 219.58 194.42 224.41 C 191.68 226.77 192.39 230.65 192.23 233.85 C 199.26 236.58 207.52 235.85 213.93 231.88 C 219.10 227.80 223.35 222.52 229.22 219.34 C 232.56 217.36 236.71 216.75 240.48 217.68 C 243.49 219.22 243.50 223.03 243.78 225.95 C 244.51 236.99 246.25 248.58 241.93 259.15 C 236.14 275.11 223.26 287.10 209.91 296.93 C 207.02 299.19 203.26 301.31 202.64 305.29 C 200.09 318.25 199.98 331.54 200.66 344.69 C 201.55 353.95 202.98 363.33 206.82 371.88 C 211.42 382.62 216.62 393.56 225.37 401.59 C 231.31 407.37 238.59 411.47 245.93 415.20 C 253.82 419.14 262.18 422.82 271.08 423.44 C 280.26 423.32 290.31 420.79 296.35 413.37 C 301.47 406.80 303.70 398.28 303.45 390.02 C 303.77 381.59 301.98 373.28 299.70 365.21 C 297.94 359.12 296.55 352.85 293.69 347.15 C 289.00 338.01 284.98 328.54 280.98 319.09 C 272.69 296.24 265.90 272.64 263.67 248.36 C 261.99 237.32 262.47 226.13 262.44 215.01 C 262.26 205.89 264.54 197.00 265.64 188.00 C 267.42 177.90 270.61 168.10 273.53 158.28 C 282.92 133.49 298.13 110.73 318.14 93.27 C 327.13 86.69 336.80 81.07 346.40 75.43 C 362.92 67.12 379.85 59.51 397.43 53.70 Z" />
<path fill="#fe6601" opacity="1.00" d=" M 481.39 503.21 C 486.58 500.24 493.32 505.25 492.64 510.99 C 492.98 516.75 485.46 520.62 480.98 517.03 C 476.24 513.97 476.40 505.92 481.39 503.21 Z" />
<path fill="#fe6601" opacity="1.00" d=" M 556.32 503.07 C 560.33 501.21 566.04 503.72 566.91 508.20 C 567.86 512.06 566.06 517.07 561.82 517.99 C 557.52 519.56 552.49 516.41 551.89 511.92 C 551.02 508.36 553.08 504.61 556.32 503.07 Z" />
<path fill="#fe6601" opacity="1.00" d=" M 460.67 503.67 C 464.60 503.61 468.54 503.59 472.47 503.63 C 472.70 526.27 472.70 548.92 472.49 571.57 C 468.54 571.65 464.58 571.63 460.63 571.53 C 460.56 548.91 460.42 526.29 460.67 503.67 Z" />
<path fill="#fe6601" opacity="1.00" d=" M 517.56 521.77 C 523.32 521.00 529.42 520.85 534.92 522.98 C 539.68 524.65 543.46 528.14 546.62 531.97 C 543.56 534.02 540.64 536.51 537.05 537.55 C 533.37 536.00 530.21 533.00 526.04 532.84 C 520.97 532.57 515.28 533.86 512.00 538.04 C 508.69 542.02 508.67 547.69 509.67 552.52 C 511.82 558.22 517.98 561.89 524.01 561.62 C 528.92 561.77 533.18 559.00 537.00 556.24 C 540.17 558.29 543.24 560.49 546.14 562.89 C 539.28 572.33 526.43 575.10 515.54 572.36 C 508.21 570.96 502.20 565.59 498.88 559.07 C 495.89 553.74 495.75 547.34 496.73 541.46 C 498.92 531.55 507.56 523.42 517.56 521.77 Z" />
<path fill="#fe6601" opacity="1.00" d=" M 688.58 521.88 C 692.36 520.94 696.39 521.08 700.17 521.96 C 704.39 522.99 707.44 526.28 710.54 529.09 C 708.21 531.82 705.76 534.46 703.25 537.04 C 699.61 534.23 695.27 532.30 690.59 533.36 C 690.48 534.52 690.37 535.68 690.27 536.86 C 696.12 540.63 702.94 543.06 707.90 548.10 C 712.67 553.01 712.73 561.27 708.77 566.69 C 704.79 572.73 696.62 573.84 689.99 573.00 C 684.47 572.45 680.09 568.79 676.37 565.00 C 678.74 562.16 681.24 559.43 683.85 556.82 C 687.64 559.36 691.80 562.66 696.69 561.66 C 699.06 561.54 700.51 558.21 698.69 556.55 C 695.59 552.64 690.59 551.16 686.64 548.35 C 682.43 545.57 678.07 541.46 678.32 535.98 C 677.73 529.55 682.81 523.91 688.58 521.88 Z" />
<path fill="#fe6601" opacity="1.00" d=" M 478.63 522.58 C 482.94 522.51 487.25 522.47 491.56 522.39 C 491.33 538.82 491.38 555.26 491.55 571.69 C 487.20 571.73 482.86 571.75 478.52 571.69 C 478.80 555.32 478.59 538.95 478.63 522.58 Z" />
<path fill="#fe6601" opacity="1.00" d=" M 553.45 522.48 C 557.48 522.50 561.50 522.50 565.53 522.48 C 565.72 538.90 565.53 555.31 565.65 571.73 C 561.55 571.71 557.44 571.72 553.34 571.74 C 553.51 555.32 553.28 538.90 553.45 522.48 Z" />
<path fill="#fe6601" opacity="1.00" d=" M 590.30 522.02 C 595.98 520.79 602.10 521.18 607.44 523.55 C 613.19 526.08 617.72 530.99 620.27 536.69 C 624.35 546.12 622.32 557.85 615.40 565.43 C 606.51 574.48 590.91 575.89 580.71 568.22 C 569.54 560.32 567.30 543.11 575.11 532.12 C 578.63 526.96 584.27 523.45 590.30 522.02 M 592.41 533.57 C 582.28 536.64 580.19 551.56 587.65 558.35 C 592.18 562.59 599.95 562.77 604.57 558.58 C 611.66 553.17 611.53 540.90 604.37 535.61 C 601.10 532.79 596.41 532.84 592.41 533.57 Z" />
<path fill="#fe6601" opacity="1.00" d=" M 628.44 522.43 C 632.77 522.50 637.11 522.51 641.46 522.46 C 641.26 530.97 641.37 539.48 641.33 548.00 C 641.46 551.75 641.43 555.98 643.95 559.04 C 647.36 562.44 653.65 562.48 657.12 559.12 C 659.52 556.37 659.44 552.44 659.59 549.00 C 659.65 540.19 659.65 531.37 659.58 522.56 C 663.70 522.52 667.83 522.49 671.96 522.39 C 672.43 530.92 672.29 539.48 672.25 548.02 C 672.03 554.75 671.35 562.27 666.30 567.28 C 661.05 573.15 652.44 574.10 645.09 572.79 C 640.88 572.20 636.86 570.17 634.14 566.87 C 630.04 561.94 628.67 555.34 628.55 549.07 C 628.41 540.19 628.68 531.31 628.44 522.43 Z" />
</g>
<g id="#666666ff">
<path fill="#666666" opacity="1.00" d=" M 232.52 502.56 C 237.26 500.94 242.48 504.68 242.53 509.67 C 243.37 515.17 237.49 520.15 232.22 517.98 C 225.38 515.81 225.54 504.40 232.52 502.56 Z" />
<path fill="#666666" opacity="1.00" d=" M 304.32 503.37 C 308.40 503.48 312.48 503.51 316.56 503.51 C 316.87 516.24 316.26 528.99 316.90 541.72 C 322.40 536.93 326.79 531.08 331.73 525.76 C 332.99 524.57 334.20 523.01 336.02 522.76 C 340.54 522.20 345.11 522.60 349.64 522.83 C 343.44 530.99 335.99 538.07 329.50 545.99 C 337.13 554.59 345.17 562.82 352.78 571.44 C 348.22 571.81 343.62 572.26 339.06 571.76 C 337.54 571.67 336.37 570.62 335.34 569.63 C 329.07 563.30 323.63 556.16 316.93 550.27 C 316.44 557.44 316.62 564.64 316.70 571.82 C 312.56 571.84 308.42 571.84 304.29 571.82 C 304.41 549.01 304.36 526.19 304.32 503.37 Z" />
<path fill="#666666" opacity="1.00" d=" M 177.69 503.66 C 181.75 503.60 185.81 503.60 189.88 503.70 C 189.86 511.43 189.85 519.17 189.89 526.91 C 194.45 524.00 199.37 520.87 205.01 521.18 C 213.18 520.93 221.06 527.60 221.26 535.97 C 221.59 547.92 221.43 559.90 221.25 571.85 C 217.19 571.84 213.13 571.84 209.08 571.87 C 208.78 561.98 209.21 552.07 208.60 542.20 C 208.42 538.47 206.95 533.94 202.79 533.12 C 196.87 531.49 191.15 536.60 190.55 542.37 C 189.46 552.14 190.01 562.00 189.88 571.82 C 185.82 571.84 181.77 571.85 177.71 571.87 C 177.43 549.14 177.49 526.40 177.69 503.66 Z" />
<path fill="#666666" opacity="1.00" d=" M 134.27 524.27 C 146.41 518.23 163.05 520.87 171.09 532.35 C 167.75 534.07 164.59 536.37 160.90 537.26 C 157.47 536.07 154.62 533.44 150.95 532.95 C 146.03 532.34 140.58 533.39 136.94 536.95 C 131.69 542.09 131.29 551.29 136.16 556.82 C 139.62 561.04 145.53 562.29 150.72 561.50 C 154.54 560.89 157.43 558.10 160.89 556.63 C 164.38 557.97 167.57 560.23 170.02 563.05 C 165.48 569.89 156.97 572.99 149.04 573.25 C 140.55 573.67 131.39 570.93 126.00 564.02 C 120.28 557.53 118.94 548.16 121.06 539.97 C 122.97 533.17 127.94 527.36 134.27 524.27 Z" />
<path fill="#666666" opacity="1.00" d=" M 250.09 533.13 C 260.18 517.57 285.97 517.06 296.82 532.06 C 293.51 534.18 290.06 536.10 286.48 537.73 C 281.44 533.24 274.22 531.35 267.80 533.86 C 259.35 536.63 255.97 548.00 260.77 555.26 C 265.20 562.18 275.59 563.67 282.27 559.24 C 283.71 558.32 285.07 557.26 286.44 556.23 C 289.84 558.31 293.14 560.55 296.32 562.96 C 286.26 575.74 264.88 576.94 253.31 565.68 C 244.79 557.36 243.52 542.97 250.09 533.13 Z" />
<path fill="#666666" opacity="1.00" d=" M 370.08 522.11 C 380.06 519.53 391.93 522.15 398.36 530.65 C 402.99 536.23 403.94 543.68 403.84 550.70 C 390.48 550.77 377.11 550.35 363.76 550.92 C 365.05 553.87 366.22 557.10 368.86 559.15 C 373.41 562.89 380.22 563.15 385.30 560.32 C 387.17 559.54 388.89 558.09 390.97 558.01 C 394.41 558.78 397.42 560.72 400.52 562.32 C 390.82 577.21 365.46 577.06 355.98 562.04 C 351.70 555.56 350.90 547.23 352.81 539.82 C 354.96 531.46 361.70 524.34 370.08 522.11 M 371.41 533.37 C 368.18 534.74 366.36 537.90 364.55 540.72 C 373.51 540.92 382.48 540.95 391.44 540.68 C 389.60 537.64 387.58 534.30 384.05 533.03 C 380.01 531.60 375.36 531.66 371.41 533.37 Z" />
<path fill="#666666" opacity="1.00" d=" M 422.55 526.61 C 426.06 524.15 429.84 521.66 434.24 521.31 C 440.42 520.57 447.18 523.02 450.61 528.39 C 453.44 532.69 453.37 538.05 453.36 543.00 C 453.22 552.61 453.45 562.23 453.18 571.84 C 449.07 571.84 444.96 571.85 440.86 571.87 C 440.67 562.58 440.95 553.29 440.64 544.01 C 440.43 540.49 440.01 536.36 436.93 534.11 C 433.24 531.74 427.91 532.80 425.25 536.24 C 422.27 539.75 421.92 544.58 421.76 548.98 C 421.62 556.60 421.74 564.23 421.76 571.86 C 417.60 571.89 413.44 571.86 409.29 571.84 C 409.44 555.49 409.41 539.14 409.30 522.80 C 413.10 522.63 416.94 522.20 420.73 522.79 C 421.43 524.01 421.98 525.31 422.55 526.61 Z" />
<path fill="#666666" opacity="1.00" d=" M 228.76 522.68 C 232.88 522.60 237.00 522.60 241.12 522.69 C 241.09 539.06 241.34 555.45 240.98 571.82 C 236.92 571.84 232.86 571.85 228.81 571.87 C 228.60 555.47 228.70 539.07 228.76 522.68 Z" />
</g>
</svg>
